roadwarrior_intro_2 = {
	slot = 2
	generic = no
	ai = yes
	potential = {
		tag = H91
		NOT = { map_setup = map_setup_random }
	}
	has_country_shield = yes
	
	H91_on_the_road_again = {
		icon = mission_indian_soldier_elephant
		position = 1
		provinces_to_highlight = {
			
		}
		trigger = {
			NOT = { capital = 4029 }
			hidden_trigger = {
				ai = no
			}
		}
		effect = {
			add_adm_power = 100
		}
	}
}

roadwarrior_intro_3 = {
	slot = 3
	generic = no
	ai = yes
	potential = {
		tag = H91
		NOT = { map_setup = map_setup_random }
	}
	has_country_shield = yes
	
	H91_stop_for_nothing = {
		icon = mission_conquer_5_states
		required_missions = {
			
		}
		position = 1
		provinces_to_highlight = {
			
		}
		trigger = {
			custom_trigger_tooltip = {
				tooltip = roadwarrior_purge_warband_tt
				has_country_flag = purged_warband
			}
			hidden_trigger = {
				ai = no
			}
		}
		effect = {
			add_mil_power = 100
		}
	}

	H91_in_and_out = { 
		icon = mission_mountain_castle 
		required_missions = { 
			H91_on_the_road_again
			H91_stop_for_nothing
			H91_trinkets_and_treasures
		} 
		position = 2 
		provinces_to_highlight = { 
			province_id = 2963 
		} 
		trigger = { 
			adm_power = 50 
			2963 = { 
				owned_by = ROOT 
				is_capital = yes 
			} 
		} 
		effect = { 
			add_adm_power = -50 
			2963 = { 
				add_province_modifier = { 
					name = roadwarrior_looting_hold 
					duration = 365 
				} 
			}
			# hidden_effect = {
				# add_country_modifier = { 
					# name = roadwarrior_looting_hold 
					# duration = 365
					# hidden = yes
				# } 
			# }
		} 
	} 
	 
	H91_greater_than_gold = { 
		icon = mission_war_chest 
		required_missions = { 
			H91_in_and_out 
		} 
		position = 2 
		provinces_to_highlight = { 
			province_id = 2963 
		} 
		trigger = { 
			2963 = {
				owned_by = ROOT 
				NOT = { 
					has_province_modifier =  roadwarrior_looting_hold 
				} 
			} 
		} 
		effect = { 
			country_event = { id = roadwarrior.7 }
			add_adm_power = 100
			add_dip_power = 100
			add_mil_power = 100
		} 
	} 
	
}

roadwarrior_intro_4 = {
	slot = 4
	generic = no
	ai = yes
	potential = {
		tag = H91
		NOT = { map_setup = map_setup_random }
	}
	has_country_shield = yes
	
	H91_trinkets_and_treasures = {
		icon = mission_steppe_warriors
		position = 1
		provinces_to_highlight = {
			
		}
		trigger = {
			treasury = 50
		}
		effect = {
			add_prestige = 10
			add_treasury = 50
		}
	}
}

roadwarrior_main_1 = {
	slot = 1
	generic = no
	ai = yes
	potential = {
		tag = H91
		has_reform = roadwarrior_great_convoy
		NOT = { map_setup = map_setup_random }
	}
	has_country_shield = yes
	

	H91_our_roads = {
		icon = mission_unite_home_region
		required_missions = {
			H91_greater_than_gold
		}
		position = 4
		provinces_to_highlight = {
			
		}
		trigger = {
			capital_scope = {
				has_terrain = dwarven_hold_surface
				NOT = { province_id = 2963 }
			}
		}
		effect = {
			custom_tooltip = roadwarrior_special_subject_tt
			set_country_flag = roadwarrior_subject_no_colonize
		}
	}


	H91_shiny_and_kronium = {
		icon = mission_empire
		required_missions = {
			H91_boys_for_the_band
		}
		position = 6
		provinces_to_highlight = {
			province_id = 4119
		}
		trigger = {
			4119 = {
				OR = {
					owned_by = ROOT
					tribal_land_of = ROOT
				}
			}
		}
		effect = {
			custom_tooltip = roadwarrior_overdrive_tt
			add_country_modifier = {
				name = roadwarrior_amhildr
				duration = -1
			}
		}
	}


	H91_sapphires_in_the_sky = {
		icon = mission_city_of_victory_vij
		required_missions = {
			H91_shiny_and_kronium
		}
		position = 7
		provinces_to_highlight = {
			province_id = 4020
		}
		trigger = {
			4020 = {
				OR = {
					owned_by = ROOT
					tribal_land_of = ROOT
				}
			}
		}
		effect = {
			custom_tooltip = roadwarrior_overdrive_tt
			add_dip_power = 100
		}
	}
	
}
roadwarrior_main_2 = {
	slot = 2
	generic = no
	ai = yes
	potential = {
		tag = H91
		NOT = { map_setup = map_setup_random }
		has_reform = roadwarrior_great_convoy
	}
	has_country_shield = yes
	

	H91_ready_the_boys = {
		icon = mission_accomodate_the_rajputs
		required_missions = {
			H91_greater_than_gold
		}
		position = 4
		provinces_to_highlight = {
			province_id = 4056
		}
		trigger = {
			4056 = {
				OR = {
					owned_by = ROOT
					tribal_land_of = ROOT
				}
			}
		}
		effect = {
			custom_tooltip = roadwarrior_overdrive_tt
			add_manpower = 2
		}
	}


	H91_boys_for_the_band = {
		icon = mission_italian_condottiere
		required_missions = {
			H91_ready_the_boys
		}
		position = 5
		provinces_to_highlight = {
			province_id = 2931
		}
		trigger = {
			2931 = {
				OR = {
					owned_by = ROOT
					tribal_land_of = ROOT
				}
			}
		}
		effect = {
			custom_tooltip = roadwarrior_overdrive_tt
			set_country_flag = roadwarrior_on_the_go
			custom_tooltip = roadwarrior_on_the_go_tt
		}
	}


	H91_edge_of_the_world = {
		icon = king_of_naples
		required_missions = {
			H91_boys_for_the_band
		}
		position = 6
		provinces_to_highlight = {
			province_id = 2863
		}
		trigger = {
			2863 = {
				OR = {
					owned_by = ROOT
					tribal_land_of = ROOT
				}
			}
		}
		effect = {
			custom_tooltip = roadwarrior_overdrive_tt
			add_country_modifier = {
				name = roadwarrior_kugdihr
				duration = -1
			}
		}
	}


	H91_west_serpentspine = {
		icon = fight_bosnian_heresies
		required_missions = {
			H91_edge_of_the_world H91_sapphires_in_the_sky
		}
		position = 8
		provinces_to_highlight = {
			region = west_dwarovar_region
			OR = {
				is_city = yes
				is_colony = yes
			}
			NOT = {
				owned_by = ROOT
			}
			has_terrain = dwarven_road
		}
		trigger = {
			custom_trigger_tooltip = {
				tooltip = roadwrrior_decolonize_west_dwarovar_tt
				west_dwarovar_region = {
					type = all
					OR = {
						owned_by = ROOT
						AND = {
							is_city = no
							is_colony = no
						}
						NOT = { has_terrain = dwarven_road }
					}
				}
			}
			manpower = 15
		}
		effect = {
			west_dwarovar_region = {
				limit = {
					has_terrain = dwarven_road
				}
				hidden_effect = {
					remove_province_modifier = roadwarrior_decolonized
				}
				add_permanent_province_modifier = {
					name = roadwarrior_decolonized_mission
					duration = -1
				}
				change_tribal_land = root
			}
			add_manpower = -15
		}
	}
	
}

roadwarrior_main_3 = {
	slot = 3
	generic = no
	ai = yes
	potential = {
		tag = H91
		NOT = { map_setup = map_setup_random }
		has_reform = roadwarrior_great_convoy
	}
	has_country_shield = yes
	

	H91_into_the_reach = {
		icon = mission_chinese_general_riding
		required_missions = {
			H91_greater_than_gold
		}
		position = 4
		provinces_to_highlight = {
			province_id = 2981
		}
		trigger = {
			capital = 2981
		}
		effect = {
			add_country_modifier = {
				name = roadwarrior_into_reach
				duration = 3650
			}
		}
	}


	H91_go_faster_runes = {
		icon = mission_a_great_mandala
		required_missions = {
			H91_into_the_reach
		}
		position = 5
		provinces_to_highlight = {
			province_id = 4100
		}
		trigger = {
			4100 = {
				OR = {
					owned_by = ROOT
					tribal_land_of = ROOT
				}
			}
		}
		effect = {
			custom_tooltip = roadwarrior_overdrive_tt
			add_country_modifier = {
				name = roadwarrior_go_faster_runes
				duration = -1
			}
		}
	}


	H91_diamond_in_the_ruins = {
		icon = mission_fortify_mandu
		required_missions = {
			H91_go_faster_runes
		}
		position = 6
		provinces_to_highlight = {
			province_id = 4093
		}
		trigger = {
			4093 = {
				OR = {
					owned_by = ROOT
					tribal_land_of = ROOT
				}
			}
		}
		effect = {
			custom_tooltip = roadwarrior_overdrive_tt
			add_country_modifier = {
				name = roadwarrior_tough_as_diamonds
				duration = -1
			}
		}
	}


	H91_orlghelovar = {
		icon = fortress_of_belgrade
		required_missions = {
			H91_diamond_in_the_ruins
		}
		position = 7
		provinces_to_highlight = {
			province_id = 4238
		}
		trigger = {
			4238 = {
				OR = {
					owned_by = ROOT
					tribal_land_of = ROOT
				}
			}
		}
		effect = {
			add_adm_power = 200
		}
	}


	H91_the_reach = {
		icon = mission_raid_on_genoa
		required_missions = {
			H91_shaztundihr H91_orlghelovar
		}
		position = 8
		provinces_to_highlight = {
			region = serpentreach_region
			OR = {
				is_city = yes
				is_colony = yes
			}
			NOT = {
				owned_by = ROOT
			}
			has_terrain = dwarven_road
		}
		trigger = {
			custom_trigger_tooltip = {
				tooltip = roadwrrior_decolonize_serpentreach_tt
				serpentreach_region = {
					type = all
					OR = {
						owned_by = ROOT
						AND = {
							is_city = no
							is_colony = no
						}
						NOT = { has_terrain = dwarven_road }
					}
				}
			}
			manpower = 10
		}
		effect = {
			serpentreach_region = {
				limit = { has_terrain = dwarven_road }
				hidden_effect = {
					remove_province_modifier = roadwarrior_decolonized
				}
				add_permanent_province_modifier = {
					name = roadwarrior_decolonized_mission
					duration = -1
				}
				change_tribal_land = root
			}
			add_manpower = -10
		}
	}


	H91_at_the_gates = {
		icon = mission_recruit_the_cossacks
		required_missions = {
			H91_east_serpentspine H91_the_reach H91_west_serpentspine
		}
		position = 9
		provinces_to_highlight = {
			province_id = 4300
		}
		trigger = {
			capital = 4300
		}
		effect = {
			add_country_modifier = {
				name = roadwarrior_at_the_gates
				duration = 9125
			}
		}
	}


	H91_back_to_the_road = {
		icon = mission_portuguese_burma
		required_missions = {
			H91_at_the_gates
		}
		position = 10
		provinces_to_highlight = {
			continent = serpentspine
			OR = {
				is_city = yes
				is_colony = yes
			}
			NOT = {
				owned_by = ROOT
			}
			has_terrain = dwarven_road
		}
		trigger = {
			custom_trigger_tooltip = {
				tooltip = roadwarrior_all_roads_tt
				serpentspine = {
					type = all
					OR = {
						owned_by = ROOT
						AND = {
							is_city = no
							is_colony = no
						}
						NOT = { has_terrain = dwarven_road }
					}
				}
			}
			manpower = 25
		}
		effect = {
			serpentspine = {
				limit = { has_terrain = dwarven_road }
				hidden_effect = {
					remove_province_modifier = roadwarrior_decolonized
				}
				add_permanent_province_modifier = {
					name = roadwarrior_decolonized_mission
					duration = -1
				}
				change_tribal_land = root
			}
			add_manpower = -25
			add_splendor = 1000
			add_country_modifier = {
				name = roadwarrior_endless_roads
				duration = -1
			}
		}
	}
	
}
roadwarrior_main_4 = {
	slot = 4
	generic = no
	ai = yes
	potential = {
		tag = H91
		NOT = { map_setup = map_setup_random }
		has_reform = roadwarrior_great_convoy
	}
	has_country_shield = yes
	

	H91_skewering_the_drake = {
		icon = mission_impaled_soldies
		required_missions = {
			H91_greater_than_gold
		}
		position = 4
		provinces_to_highlight = {
			province_id = 4217
		}
		trigger = {
			4217 = {
				OR = {
					owned_by = ROOT
					tribal_land_of = ROOT
				}
			}
		}
		effect = {
			custom_tooltip = roadwarrior_overdrive_tt
			add_country_modifier = {
				name = roadwarrior_skewered_the_drake
				duration = -1
			}
		}
	}


	H91_citrines_and_citrus = {
		icon = french_empire
		required_missions = {
			H91_skewering_the_drake
		}
		position = 5
		provinces_to_highlight = {
			province_id = 4124
		}
		trigger = {
			4124 = {
				OR = {
					owned_by = ROOT
					tribal_land_of = ROOT
				}
			}
		}
		effect = {
			custom_tooltip = roadwarrior_overdrive_tt
			custom_tooltip = roadwarrior_truce_breaks_tt
			hidden_effect = {
				add_country_modifier = {
					name = roadwarrior_truce
					duration = -1
				}
			}
		}
	}


	H91_shaztundihr = {
		icon = gory_to_the_black_army
		required_missions = {
			H91_diamond_in_the_ruins
		}
		position = 7
		provinces_to_highlight = {
			province_id = 2942
		}
		trigger = {
			2942 = {
				OR = {
					owned_by = ROOT
					tribal_land_of = ROOT
				}
			}
		}
		effect = {
			custom_tooltip = roadwarrior_overdrive_tt
			add_country_modifier = {
				name = roadwarrior_marble_spikes
				duration = -1
			}
		}
	}


	H91_east_serpentspine = {
		icon = mission_pf_map_table
		required_missions = {
			H91_where_glory_awaits
		}
		position = 8
		provinces_to_highlight = {
			OR = {
				region = middle_dwarovar_region
				region = tree_of_stone_region
			}
			OR = {
				is_city = yes
				is_colony = yes
			}
			NOT = {
				owned_by = ROOT
			}
			has_terrain = dwarven_road
		}
		trigger = {
			custom_trigger_tooltip = {
				tooltip = roadwrrior_decolonize_east_dwarovar_tt
				middle_dwarovar_region = {
					type = all
					OR = {
						owned_by = ROOT
						AND = {
							is_city = no
							is_colony = no
						}
						NOT = { has_terrain = dwarven_road }
					}
				}
				tree_of_stone_region = {
					type = all
					OR = {
						owned_by = ROOT
						AND = {
							is_city = no
							is_colony = no
						}
						NOT = { has_terrain = dwarven_road }
					}
				}
			}
			manpower = 15
		}
		effect = {
			middle_dwarovar_region = {
				limit = { has_terrain = dwarven_road }
				hidden_effect = {
					remove_province_modifier = roadwarrior_decolonized
				}
				add_permanent_province_modifier = {
					name = roadwarrior_decolonized_mission
					duration = -1
				}
				change_tribal_land = root
			}
			tree_of_stone_region = {
				limit = { has_terrain = dwarven_road }
				hidden_effect = {
					remove_province_modifier = roadwarrior_decolonized
				}
				add_permanent_province_modifier = {
					name = roadwarrior_decolonized_mission
					duration = -1
				}
				change_tribal_land = root
			}
			add_manpower = -15
		}
	}
	
}

roadwarrior_main_5 = {
	slot = 5
	generic = no
	ai = yes
	potential = {
		tag = H91
		NOT = { map_setup = map_setup_random }
		has_reform = roadwarrior_great_convoy
	}
	has_country_shield = yes
	

	H91_hold_of_gold = {
		icon = mission_entrepot_of_india
		required_missions = {
			H91_skewering_the_drake
		}
		position = 5
		provinces_to_highlight = {
			province_id = 2914
		}
		trigger = {
			2914 = {
				OR = {
					owned_by = ROOT
					tribal_land_of = ROOT
				}
			}
		}
		effect = {
			custom_tooltip = roadwarrior_overdrive_tt
			add_treasury = 500
		}
	}


	H91_grozhumdihr = {
		icon = mission_riches_of_golconda
		required_missions = {
			H91_citrines_and_citrus H91_hold_of_gold
		}
		position = 6
		provinces_to_highlight = {
			province_id = 4265
		}
		trigger = {
			4265 = {
				OR = {
					owned_by = ROOT
					tribal_land_of = ROOT
				}
			}
		}
		effect = {
			custom_tooltip = roadwarrior_overdrive_tt
			add_mil_power = 200
		}
	}


	H91_where_glory_awaits = {
		icon = give_him_back_his_legions
		required_missions = {
			H91_grozhumdihr
		}
		position = 7
		provinces_to_highlight = {
			province_id = 4266
		}
		trigger = {
			4266 = {
				OR = {
					owned_by = ROOT
					tribal_land_of = ROOT
				}
			}
		}
		effect = {
			custom_tooltip = roadwarrior_overdrive_tt
			add_country_modifier = {
				name = roadwarrior_glory_awaits
				duration = -1
			}
		}
	}
	
}
