namespace = bianfang

#Hulibao events

country_event = {
	id = bianfang.1		#triggered by the mission
	title = bianfang.1.t
	desc = bianfang.1.d
	picture = TIGER_THRONE_eventPicture
	
	is_triggered_only = yes
	
	option = {	#demand subservience
		name = bianfang.1.a
		ai_chance = {
			factor = 60
		}
		Y03 = {
			country_event = { id = bianfang.2 days = 14 }
		}
		increase_tyrant_benevolent_1 = yes
	}
	
	option = {	#subjugate them by force
		name = bianfang.1.b
		ai_chance = {
			factor = 40
		}
		add_casus_belli = {
				target = Y03
				type = cb_vassalize_mission
				months = 120
		}
        define_general = {
			name = "Jianlin Shi"
			fire = 1
			shock = 4
			manuever = 2
			siege = 3
		}
		increase_tyrant_ruthless_1 = yes 
	}
}

country_event = {
	id = bianfang.2
	title = bianfang.2.t
	desc = bianfang.2.d
	picture = CORRUPTION_eventPicture
	
	is_triggered_only = yes
	
	option = {	#accept, become march
		name = bianfang.2.a
		ai_chance = {
			factor = 40
		}
		Y09 = {
			country_event = {
				id = bianfang.3
			}
		}
	}
	
	option = { #reject
		name = bianfang.2.b
		ai_chance = {
			factor = 60
		}
		Y09 = { country_event = { id = bianfang.4 days = 7 } }
	}
}

country_event = {
	id = bianfang.3	#notified of acceptance
	title = bianfang.3.t
	desc = bianfang.3.d
	picture = FORT_eventPicture
	
	is_triggered_only = yes
	
	option = {
		name = bianfang.3.a
		add_prestige = 10
		create_march = Y03
		add_treasury = -150
		Y03 = {
			add_treasury = 150
		}
		define_advisor = {
			name = "Jianlin Shi"
			type = statesman
			cost_multiplier = 0.75
			skill = 1
		}
	}
}

country_event = {
	id = bianfang.4 #notified of rejection, get CB
	title = bianfang.4.t
	desc = bianfang.4.d
	picture = SIEGE_eventPicture
	
	is_triggered_only = yes
	
	option = {
		name = bianfang.4.a #kill Jianlin Shi
		add_casus_belli = {
				target = Y03
				type = cb_vassalize_mission
				months = 120
		}
		add_country_modifier = {
			name = bianfang_marshal_executed
			duration = 1825
		}
		increase_tyrant_ruthless_1 = yes 
	}

	option = {
		name = bianfang.4.b #give him command
		add_casus_belli = {
				target = Y03
				type = cb_vassalize_mission
				months = 120
		}
        define_general = {
			name = "Jianlin Shi"
			fire = 1
			shock = 4
			manuever = 2
			siege = 3
		}
		increase_tyrant_benevolent_1 = yes
	}
}

#Xiyun stuff

country_event = { #betrayal
	id = bianfang.5
	title = bianfang.5.t
	desc = bianfang.5.d
	picture = FEAST_eventPicture
	
	is_triggered_only = yes
	
	option = {
		name = bianfang.5.a
		add_stability = -1
		add_dip_power = -200
		add_country_modifier = {
			name = bianfang_betrayal
			duration = 9125
		}
		inherit = Y21
		increase_tyrant_ruthless_2 = yes
	}
}

country_event = { #xiyun asked to become autonomous vassal
	id = bianfang.6
	title = bianfang.6.t
	desc = bianfang.6.d
	picture = MERCHANTS_TALKING_eventPicture
	
	is_triggered_only = yes
	
	option = { #accept
		name = bianfang.6.a
		ai_chance = {
			factor = 100
		}
		Y09 = {
			create_subject = {
				subject_type = autonomous_vassal
				subject = Y21
			}
		}
	}
	
	option = { #refuse
		name = bianfang.6.b
		ai_chance = {
			factor = 0
		}
		Y09 = {
			add_casus_belli = {
				target = Y21
				type = cb_vassalize_mission
				months = 300
			}
			add_historical_rival = Y21
		}
		Y21 = { add_historical_rival = Y09 }
	}
}


#TYRANT SYSTEM SETUP 7-10

country_event = {
	id = bianfang.99 #DEBUG
	title = bianfang.99.t
	desc = bianfang.99.d
	picture = BAD_WITH_MONARCH_eventPicture
	
	is_triggered_only = yes
	
	option = {
		name = bianfang.99.a
		increase_tyrant_ruthless_3 = yes
	}
	
	option = {
		name = bianfang.99.b
		increase_tyrant_benevolent_3 = yes
	}
}

country_event = {
	id = bianfang.7 #startup
	title = bianfang.7.t
	desc = bianfang.7.d
	picture = BAD_WITH_MONARCH_eventPicture
	
	is_triggered_only = yes
	fire_only_once = yes
	
	option = {
		name = bianfang.7.a
		hidden_effect = { initialize_tyrant_system = yes }
		hidden_effect = { set_country_flag = tyrant_system_initialized }
		add_country_modifier = {
			name = bianfang_tyrant_modifier_pragmatic
			duration = -1
		}
	}
}

country_event = {
	id = bianfang.8 #update modifier to ruthless
	title = bianfang.8.t
	desc = bianfang.8.d
	picture = BAD_WITH_MONARCH_eventPicture
	
	is_triggered_only = yes
	
	option = {
		name = bianfang.8.a
		remove_country_modifier = bianfang_tyrant_modifier_pragmatic
		remove_country_modifier = bianfang_tyrant_modifier_benevolent
		add_country_modifier = {
			name = bianfang_tyrant_modifier_ruthless
			duration = -1
		}
	}
}

country_event = {
	id = bianfang.9 #update modifier to pragmatic
	title = bianfang.9.t
	desc = bianfang.9.d
	picture = BAD_WITH_MONARCH_eventPicture
	
	is_triggered_only = yes
	
	option = {
		name = bianfang.9.a
		remove_country_modifier = bianfang_tyrant_modifier_benevolent
		remove_country_modifier = bianfang_tyrant_modifier_ruthless
		add_country_modifier = {
			name = bianfang_tyrant_modifier_pragmatic
			duration = -1
		}
	}
}

country_event = {
	id = bianfang.10 #update modifier to benevolent
	title = bianfang.10.t
	desc = bianfang.10.d
	picture = BAD_WITH_MONARCH_eventPicture
	
	is_triggered_only = yes
	
	option = {
		name = bianfang.10.a
		remove_country_modifier = bianfang_tyrant_modifier_pragmatic
		remove_country_modifier = bianfang_tyrant_modifier_ruthless
		add_country_modifier = {
			name = bianfang_tyrant_modifier_benevolent
			duration = -1
		}
	}
}

#Tyrant events 11-

country_event = {
	id = bianfang.11 #Fate of the monasteries
	title = bianfang.11.t
	desc = bianfang.11.d
	picture = RELIGIOUS_TURMOIL_eventPicture
	
	is_triggered_only = yes
	
	option = {
		name = bianfang.11.a #leave them be
		increase_tyrant_benevolent_2 = yes
		tietyuan_area = {
			add_province_modifier = {
				name = bianfang_monasteries_left_alone
				duration = 3650
			}
		}
		wangqiu_area = {
			add_province_modifier = {
				name = bianfang_monasteries_left_alone
				duration = 3650
			}
		}
		aoshan_area = {
			add_province_modifier = {
				name = bianfang_monasteries_left_alone
				duration = 3650
			}
		}
		set_country_flag = keepers_alive
	}
	
	option = {
		name = bianfang.11.b
		increase_tyrant_ruthless_3 = yes
		add_years_of_income = 1.5
		tietyuan_area = {
			add_devastation = 50
			add_province_modifier = {
				name = bianfang_monasteries_dismantled
				duration = 3650
			}
		}
		wangqiu_area = {
			add_devastation = 50
			add_province_modifier = {
				name = bianfang_monasteries_dismantled
				duration = 3650
			}
		}
		aoshan_area = {
			add_devastation = 50
			add_province_modifier = {
				name = bianfang_monasteries_dismantled
				duration = 3650
			}
		}
		custom_tooltip = subjugate_months_rp_provinces_tt
		hidden_effect = {
			every_owned_province = {
				limit = { 
					religion = righteous_path
					superregion = yanshen_superregion
				}
				add_province_modifier = {
					name = bianfang_righteous_path_outraged
					duration = 3650
				}
			}
		}
		hidden_effect = {
			country_event = {
				id = bianfang.12
				days = 100
			}
		}
	}
}

country_event = {
	id = bianfang.12 #flight of the keepers
	title = bianfang.12.t
	desc = bianfang.12.d
	picture = NUSANTARA_THRONE_eventPicture
	
	is_triggered_only = yes
	
	option = {
		name = bianfang.12.a
		4811 = {
			add_base_production = -1
			add_province_modifier = {
				name = bianfang_damestear_sabotaged
				duration = 9125
			}
			add_unrest = 5
		}
	}
}

country_event = {
	id = bianfang.13 #fate of the eunuchs
	title = bianfang.13.t
	desc = bianfang.13.d
	picture = IMPERIAL_EXAMINATION_eventPicture
	
	is_triggered_only = yes
	
	option = {
		name = bianfang.13.a #let them help with the administration, causes eunuch plot later
		increase_tyrant_benevolent_2 = yes
		clr_country_flag = anti_eunuch_country
		custom_tooltip = eunuchs_return_tt
	}
	
	option = {
		name = bianfang.13.b
		increase_tyrant_ruthless_1 = yes #we have no need of them, dispose of them
		custom_tooltip = bianfang_eunuchs_not_welcome_tt
	}
}

## bianfang.14 replaced by bianfang.30-42

country_event = {
	id = bianfang.15 #courts of jindeshi
	title = bianfang.15.t
	desc = bianfang.15.d
	picture = APOSTLE_eventPicture
	
	is_triggered_only = yes
	
	option = {
		name = bianfang.15.a #WICKEDNESS MUST BE STAMPED OUT
		hidden_effect = {
			every_owned_province = {
				limit = { religion = righteous_path }
				add_province_modifier = {
					name = bianfang_righteous_path_pleased
					duration = 3650
				}
			}
			every_owned_province = {
				limit = { religion = lefthand_path }
				add_province_modifier = {
					name = bianfang_lhp_outraged
					duration = 3650
				}
			}
		}
		hidden_effect = { set_country_flag = bianfang_lhp_hunted } #will force to purge oni later, or reverse course at great cost
		add_stability_or_adm_power = yes
		custom_tooltip = bianfang_hunt_lhp_tt
		increase_tyrant_benevolent_3 = yes
	}
	
	option = {
		name = bianfang.15.b #drive out the vampires but tolerate the lhp followers

		hidden_effect = {
			every_country = { 
				limit = {
					religion = righteous_path
				}
				add_opinion = {
					who = ROOT
					modifier = bianfang_lhp_tolerated_opinion 
				}
			}
			every_owned_province = {
				limit = { 
					religion = righteous_path
				}
				add_province_modifier = {
					name = bianfang_righteous_path_upset
					duration = 3650
				}
			}
			every_owned_province = {
				limit = { religion = lefthand_path }
				add_province_modifier = {
					name = bianfang_lhp_tolerated_modifier
					duration = 3650
				}
			}
		}	

		reduce_stability_or_adm_power = yes
		custom_tooltip = bianfang_tolerate_lhp_tt
		increase_tyrant_ruthless_1 = yes
		hidden_effect = { set_country_flag = bianfang_lhp_tolerated } #will enable tolerating/working with the Oni later
	}
	
	option = {
		name = bianfang.15.c #actively work with the vampires
		trigger = {
			NOT = {
				OR = {
            		bianfang_ruler_benevolent_personality = yes
					ruler_has_personality = zealous_personality
				}
			}
		}

		hidden_effect = {
			every_country = { 
				limit = {
					religion = righteous_path
				}
				add_opinion = {
					who = ROOT
					modifier = bianfang_lhp_tolerated_opinion 
				}
			}
			every_owned_province = {
				limit = { 
					religion = righteous_path
				}
				add_province_modifier = {
					name = bianfang_righteous_path_outraged
					duration = 3650
				}
			}
			every_owned_province = {
				limit = { religion = lefthand_path }
				add_province_modifier = {
					name = bianfang_lhp_tolerated_modifier
					duration = 3650
				}
			}
		}
		if = {
			limit = {
				NOT = { 
					ruler_has_max_personalities = yes 
				}
			}
			add_ruler_personality = malevolent_personality
		}
		reduce_stability_or_adm_power = yes
		4842 = {
			add_province_modifier = {
				name = bianfang_working_with_jiangshi
				duration = -1
			}
		}
		increase_tyrant_ruthless_3 = yes
		custom_tooltip = bianfang_tolerate_lhp_work_with_vamps_tt
		hidden_effect = { set_country_flag = bianfang_lhp_tolerated } #will enable tolerating/working with the Oni later
	}
}

country_event = {
	id = bianfang.16 #hunting down lhp
	title = bianfang.16.t
	desc = bianfang.16.d
	picture = WITCHBURNING_eventPicture
	
	is_triggered_only = yes

	trigger = {
		OR = {
			tag = Y09
			AND = {
				tag = Z66
				was_tag = Y09
			}
		}
		has_country_flag = bianfang_lhp_hunted
		any_owned_province = {
			religion = lefthand_path
			has_human_majority_trigger = yes
		}
	}

	immediate = { 
		hidden_effect = {
			random_owned_province = {
				limit = {
					religion = lefthand_path
					has_human_majority_trigger = yes
				}
				save_event_target_as = bianfang_lhp_target_province
			}
		}		
	}

	option = {
		name = bianfang.16.a
		event_target:bianfang_lhp_target_province = {
			add_devastation = 25
			random_list = {
				33 = {
					add_base_tax = -1
				}
				33 = {
					add_base_production = -1
				}
				33 = {
					add_base_manpower = -1
				}
			}
			if = {
				limit = {
					OR = {
						development = 20
						has_terrain = city_terrain
					}
				}
				change_religion = high_philosophy
			}
			else = {
				change_religion = righteous_path
			}
			if = {
				limit = { has_province_modifier = bianfang_lhp_outraged }
				remove_province_modifier = bianfang_lhp_outraged
			}
		}
	}
}

## 200- Hui tyrant events
country_event = {
	id = bianfang.200 #deal with the demons
	title = bianfang.200.t
	desc = bianfang.200.d
	picture = ONI_FORTRESS_eventPicture
	
	is_triggered_only = yes
	
	option = {
		name = bianfang.200.a #Hunt down the demons
		
		custom_tooltip = bianfang_hunt_oni_tt
		hidden_effect = {
			every_owned_province = {
				limit = { 
					religion = lefthand_path 
					NOT = { culture = horned_ogre }
				}
				add_province_modifier = {
					name = bianfang_lhp_outraged
					duration = 3650
				}
			}
			every_owned_province = {
				limit = { culture = horned_ogre }
				add_province_modifier = {
					name = bianfang_oni_hunted_modifier
					duration = 3650
				}
				add_nationalism = 10
			}
			every_owned_province = {
				limit = { religion = righteous_path }
				add_province_modifier = {
					name = bianfang_righteous_path_pleased
					duration = 3650
				}
			}		
		}
		add_stability_or_adm_power = yes
		large_decrease_of_ogre_tolerance_effect = yes
		increase_tyrant_benevolent_3 = yes
		4842 = {
			if = {
				limit = { has_province_modifier = bianfang_working_with_jiangshi }
				remove_province_modifier = bianfang_working_with_jiangshi
			}
		}
		hidden_effect = {
			clr_country_flag = bianfang_lhp_tolerated #reverse course on tolerating LHP in bianfang.16
			set_country_flag = bianfang_lhp_hunted 
			set_country_flag = bianfang_oni_hunted			
		}
	}
	
	option = {
		name = bianfang.200.b #work with the oni
		trigger = {
			NOT = {
				AND = {
					OR = {
						ruler_has_personality = malevolent_personality
						ruler_has_personality = cruel_personality
					}
            		has_country_modifier = bianfang_tyrant_modifier_ruthless
				}
			}
		}

		custom_tooltip = bianfang_tolerate_oni_tt
		hidden_effect = {

			every_owned_province = {
				limit = { religion = righteous_path }
				add_province_modifier = {
					name = bianfang_righteous_path_outraged
					duration = 3650
				}
			}
			every_owned_province = {
				limit = { culture = horned_ogre }
				add_province_modifier = {
					name = bianfang_oni_left_alone
					duration = 3650
				}
			}
			every_country = { 
				limit = {
					AND = {
						capital_scope = { 
							OR = { 
								superregion = yanshen_superregion
								superregion = south_haless_superregion
								superregion = north_haless_superregion
								superregion = rahen_superregion
							} 
						}
						NOT = { religion = lefthand_path }
					}
				}
				add_opinion = {
					who = ROOT
					modifier = bianfang_oni_tolerated_opinion 
				}
			}	
		}		
		reduce_stability_or_adm_power = yes
		medium_increase_of_ogre_tolerance_effect = yes
		capital_scope = {
			add_ogre_minority_size_effect = yes
		}
		add_country_modifier = {
			name = bianfang_oni_secrets
			duration = -1
		}
		increase_tyrant_ruthless_2 = yes
		hidden_effect = { set_country_flag = bianfang_oni_tolerated }
	}
	
	option = {
		name = bianfang.200.c # reverse course on lhp if chose to hunt in Bianfang.16 at great cost

		trigger = {
			AND = {
            	has_country_flag = bianfang_lhp_hunted
            	has_country_modifier = bianfang_tyrant_modifier_ruthless
				OR = {
					ruler_has_personality = malevolent_personality
					ruler_has_personality = cruel_personality
				}
				NOT = {
					ruler_has_personality = zealous_personality
				}
			}
		}
		custom_tooltip = bianfang_tolerate_oni_lhp_tt
				
		hidden_effect = {
			every_owned_province = {
				limit = { religion = righteous_path }
				add_province_modifier = {
					name = bianfang_righteous_path_outraged
					duration = 3650
				}
			}
			every_owned_province = {
				limit = { culture = horned_ogre }
				add_province_modifier = {
					name = bianfang_oni_left_alone
					duration = 3650
				}
			}
			every_country = { 
				limit = {
					AND = {
						capital_scope = { 
							OR = { 
								superregion = yanshen_superregion
								superregion = south_haless_superregion
								superregion = north_haless_superregion
								superregion = rahen_superregion
							} 
						}
						NOT = { religion = lefthand_path }
					}
				}
				add_opinion = {
					who = ROOT
					modifier = bianfang_oni_tolerated_opinion 
				}
			}	
		}
		add_stability = -4
		medium_increase_of_ogre_tolerance_effect = yes
		capital_scope = {
			add_ogre_minority_size_effect = yes
		}
		increase_tyrant_ruthless_3 = yes
		hidden_effect = { 
			clr_country_flag = bianfang_lhp_hunted 
			set_country_flag = bianfang_oni_tolerated 
			set_country_flag = bianfang_lhp_tolerated 
		}
	}
}

country_event = {
	id = bianfang.201 #hunting down Oni
	title = bianfang.201.t
	desc = bianfang.201.d
	picture = ONI_HUMANS_eventPicture

	is_triggered_only = yes

	trigger = {
		OR = {
			tag = Y09
			AND = {
				tag = Z66
				was_tag = Y09
			}
		}
		has_country_flag = bianfang_oni_hunted
		any_owned_province = {
			culture = horned_ogre
		}
	}

	immediate = { 
		hidden_effect = {
			random_owned_province = {
				limit = { culture = horned_ogre }
				save_event_target_as = bianfang_oni_target_province
			}
		}		
	}

	option = {
		name = bianfang.201.a
		event_target:bianfang_oni_target_province = {
			add_devastation = 25
			random_list = {
				33 = {
					add_base_tax = -1
				}
				33 = {
					add_base_production = -1
				}
				33 = {
					add_base_manpower = -1
				}
			}
			change_culture = ROOT
			if = {
				limit = {
					OR = {
						development = 20
						has_terrain = city_terrain
					}
				}
				change_religion = high_philosophy
			}
			else = {
				change_religion = righteous_path
			}
			if = {
				limit = { has_province_modifier = bianfang_oni_hunted_modifier }
				remove_province_modifier = bianfang_oni_hunted_modifier
			}
		}
	}
}

country_event = {
	id = bianfang.202 ### Lanjinhui tyranny event
	title = bianfang.202.t
	desc = bianfang.202.d
	picture = ANGRY_MOB_eventPicture
	
	is_triggered_only = yes
	
	option = {
		name = bianfang.202.a #leave them be
		increase_tyrant_benevolent_2 = yes
		ningxiang_area = {
			add_province_modifier = {
				name = bianfang_lanjinhui_spared_prov
				duration = 3650
			}
		}
		liuminxiang_area = {
			add_province_modifier = {
				name = bianfang_lanjinhui_spared_prov
				duration = 3650
			}
		}
		erluxi_area = {
			add_province_modifier = {
				name = bianfang_lanjinhui_spared_prov
				duration = 3650
			}
		}
		add_country_modifier = {
			name = bianfang_lajinhui_spared_country
			duration = 5475
		}
	}
	
	option = {
		name = bianfang.202.b ##punish them with hard labor
		increase_tyrant_ruthless_3 = yes
		add_years_of_income = 1.5
		ningxiang_area = {
			add_devastation = 10
			add_province_modifier = {
				name = bianfang_corvee_labor
				duration = 5475
			}
		}
		liuminxiang_area = {
			add_devastation = 10
			add_province_modifier = {
				name = bianfang_corvee_labor
				duration = 5475
			}
		}
		erluxi_area = {
			add_devastation = 10
			add_province_modifier = {
				name = bianfang_corvee_labor
				duration = 5475
			}
		}
	}
}

### 30-42 Eunuch assassination events
country_event = {
	id = bianfang.30 #eunuch plot manager event
	title = bianfang.30.t
	desc = bianfang.30.d
	picture = ASSASSINATION_eventPicture

	is_triggered_only = yes

    hidden = yes

	trigger = {
		OR = {
			tag = Y09
			AND = {
				tag = Z66
				was_tag = Y09
			}
		}
		has_estate = estate_eunuchs
        NOT = {
			OR = {
				has_estate_influence_modifier = {
					estate = estate_eunuchs
					modifier = EST_BIANFANG_EUNUCH_ASSASSINATION_RULER
				}
				has_estate_influence_modifier = {
					estate = estate_eunuchs
					modifier = EST_BIANFANG_EUNUCH_ASSASSINATION_ATTEMPT_RULER
				}
				has_estate_influence_modifier = {
					estate = estate_eunuchs
					modifier = EST_BIANFANG_EUNUCH_ASSASSINATION_ROYAL_FAMILY
				}
				has_estate_influence_modifier = {
					estate = estate_eunuchs
					modifier = EST_BIANFANG_EUNUCH_ASSASSINATION_ATTEMPT_ROYAL_FAMILY
				}	
				has_estate_influence_modifier = {
					estate = estate_eunuchs
					modifier = EST_BIANFANG_EUNUCH_ASSASSINATION_COURT
				}
				has_estate_influence_modifier = {
					estate = estate_eunuchs
					modifier = EST_BIANFANG_EUNUCH_ASSASSINATION_ATTEMPT_COURT
				}					
			}		
		}
	}
	
	option = {
		name = bianfang.30.a
		random_list = {
			25 = { #kill ruler
				modifier = {
					factor = 0
					has_regency = yes
				}
				country_event = { id = bianfang.31 }
			}
			75 = { #fail to kill ruler
				modifier = {
					factor = 0
					has_regency = yes
				}
				country_event = { id = bianfang.32 }
			}
			25 = { #kill heir
				modifier = {
					factor = 0
					has_heir = no
				}
				country_event = { id = bianfang.33 }
			}
			75 = { #fail to kill heir
				modifier = {
					factor = 0
					has_heir = no
				}
				country_event = { id = bianfang.34 }
			}							
			25 = { #kill consort
				modifier = {
					factor = 0
					has_consort = no
				}
				country_event = { id = bianfang.35 }
			}
			75 = { #fail to kill consort
				modifier = {
					factor = 0
					has_consort = no
				}
				country_event = { id = bianfang.36 }
			}							
			50 = { #kill ADM advisor
				modifier = {
					factor = 0
					NOT = { employed_advisor = { category = ADM } }
				}
				country_event = { id = bianfang.37 }
			}
			50 = { #fail to kill ADM advisor
				modifier = {
					factor = 0
					NOT = { employed_advisor = { category = ADM } }
				}
				country_event = { id = bianfang.38 }
			}
			50 = { #kill DIP advisor
				modifier = {
					factor = 0
					NOT = { employed_advisor = { category = DIP } }
				}
				country_event = { id = bianfang.39 }
			}
			50 = { #fail to kill DIP advisor
				modifier = {
					factor = 0
					NOT = { employed_advisor = { category = DIP } }
				}
				country_event = { id = bianfang.40 }
			}
			50 = { #kill MIL advisor
				modifier = {
					factor = 0
					NOT = { employed_advisor = { category = MIL } }
				}
				country_event = { id = bianfang.41 }
			}
			50 = { #fail to kill MIL advisor
				modifier = {
					factor = 0
					NOT = { employed_advisor = { category = MIL } }
				}
				country_event = { id = bianfang.42 }
			}

			600 = { 
				##loyal estate
				modifier = {
					factor = 1.5
					estate_loyalty = {
						estate = estate_eunuchs
						loyalty = 60
					}
				}
				modifier = {
					factor = 1.5
					estate_loyalty = {
						estate = estate_eunuchs
						loyalty = 80
					}
				}
				##weak estate
				modifier = {
					factor = 1.5
					NOT = {
						estate_influence = {
							estate = estate_eunuchs
							influence = 40
						}
					}
				}
				modifier = {
					factor = 1.5
					NOT = {
						estate_influence = {
							estate = estate_eunuchs
							influence = 20
						}
					}
				}
				##disloyal estate
				modifier = {
					factor = 0.5
					NOT = {
						estate_loyalty = {
							estate = estate_eunuchs
							loyalty = 40
						}
					}
				}
				modifier = {
					factor = 0.5
					NOT = {
						estate_loyalty = {
							estate = estate_eunuchs
							loyalty = 20
						}
					}
				}
				##influential estate
				modifier = {
					factor = 0.5
					estate_influence = {
						estate = estate_eunuchs
						influence = 60
					}
				}
				modifier = {
					factor = 0.5
					estate_influence = {
						estate = estate_eunuchs
						influence = 80
					}
				}
			}			
		}
 	}
}

country_event = {
	id = bianfang.31 ##eunuchs successfully assassinate ruler
	title = bianfang.31.t

	desc = {
        trigger = {
			heir_age = 16
        }
	    desc = "bianfang.31.da" #heir of age
    }
	desc = {
        trigger = {
			AND = {
				has_heir = yes 
				has_consort = yes 
				NOT = { heir_age = 16 }
			}
        }
	    desc = "bianfang.31.db" #consort regency
    }
	desc = {
        trigger = {
			AND = { 
				has_consort = no
				NOT = { heir_age = 16 }
			}
        }
	    desc = "bianfang.31.dc" #regency council or no heir
    }

	picture = ASSASSINATION_eventPicture

	is_triggered_only = yes

	option = {
		name = "bianfang.31.a" #purge plotters but allow others to remain
		kill_ruler = yes
		add_prestige = -50
		add_estate_influence_modifier = { ## eunuch plotters assassins purged
			estate = estate_eunuchs
			desc = EST_BIANFANG_EUNUCH_ASSASSINATION_RULER
			influence = -25
			duration = 5475
		}
		add_estate_loyalty = { ## remaining eunuchs loyal
    		estate = estate_eunuchs
    		loyalty = 20
		}
		increase_tyrant_benevolent_1 = yes
	}
	option = {
		name = "bianfang.31.b" #purge all eunuchs
		kill_ruler = yes
		if = {
			limit = {
				estate_influence = {
					estate = estate_eunuchs
					influence = 80
				}
			}
			spawn_rebels = {
				type = noble_rebels
				size = 3
			}
		}
		else_if = {
			limit = {
				estate_influence = {
					estate = estate_eunuchs
					influence = 60
				}
			}
			spawn_rebels = {
				type = noble_rebels
				size = 2
			}
		}
		else = {
			spawn_rebels = {
				type = noble_rebels
				size = 1
			}
		}
		set_country_flag = anti_eunuch_country
		add_ruler_modifier = { ### for successor 
			name = eunuchs_purged
			duration = -1
		}
		increase_tyrant_ruthless_2 = yes
	}
}

country_event = {
	id = bianfang.32 ##eunuchs fail to assassinate ruler
	title = bianfang.32.t
	desc = bianfang.32.d
	picture = ACCUSATION_eventPicture

	is_triggered_only = yes

	option = {
		name = "bianfang.32.a" #purge plotters but allow others to remain
		add_prestige = -30
		add_estate_influence_modifier = { ## eunuch plotters assassins purged
			estate = estate_eunuchs
			desc = EST_BIANFANG_EUNUCH_ASSASSINATION_ATTEMPT_RULER
			influence = -25
			duration = 5475
		}
		add_estate_loyalty = { ## remaining eunuchs loyal
    		estate = estate_eunuchs
    		loyalty = 20
		}
		increase_tyrant_benevolent_1 = yes
	}
	option = {
		name = "bianfang.32.b" #purge all eunuchs
		if = {
			limit = {
				estate_influence = {
					estate = estate_eunuchs
					influence = 80
				}
			}
			spawn_rebels = {
				type = noble_rebels
				size = 3
			}
		}
		else_if = {
			limit = {
				estate_influence = {
					estate = estate_eunuchs
					influence = 60
				}
			}
			spawn_rebels = {
				type = noble_rebels
				size = 2
			}
		}
		else = {
			spawn_rebels = {
				type = noble_rebels
				size = 1
			}
		}
		set_country_flag = anti_eunuch_country
		add_ruler_modifier = { 
			name = eunuchs_purged
			duration = -1
		}
		increase_tyrant_ruthless_2 = yes
	}
}

country_event = {
	id = bianfang.33 ##eunuchs successfully assassinate heir
	title = bianfang.33.t
	desc = bianfang.33.d
	picture = ASSASSINATION_eventPicture

	is_triggered_only = yes

	option = {
		name = "bianfang.33.a" #purge plotters but allow others to remain
		kill_heir = { }
		add_prestige = -40
		add_estate_influence_modifier = { ## eunuch plotters assassins purged
			estate = estate_eunuchs
			desc = EST_BIANFANG_EUNUCH_ASSASSINATION_ROYAL_FAMILY
			influence = -20
			duration = 5475
		}
		add_estate_loyalty = { ## remaining eunuchs loyal
    		estate = estate_eunuchs
    		loyalty = 15
		}
		increase_tyrant_benevolent_1 = yes
	}

	option = {
		name = "bianfang.33.b" #purge all eunuchs
		kill_heir = { }
		add_ruler_modifier = { 
			name = eunuchs_purged
			duration = -1
		}
		if = {
			limit = {
				estate_influence = {
					estate = estate_eunuchs
					influence = 80
				}
			}
			spawn_rebels = {
				type = noble_rebels
				size = 3
			}
		}
		else_if = {
			limit = {
				estate_influence = {
					estate = estate_eunuchs
					influence = 60
				}
			}
			spawn_rebels = {
				type = noble_rebels
				size = 2
			}
		}
		else = {
			spawn_rebels = {
				type = noble_rebels
				size = 1
			}
		}
		set_country_flag = anti_eunuch_country
		increase_tyrant_ruthless_2 = yes
	}
}

country_event = {
	id = bianfang.34 ##eunuchs fail to assassinate heir
	title = bianfang.34.t
	desc = bianfang.34.d
	picture = ACCUSATION_eventPicture

	is_triggered_only = yes

	option = {
		name = "bianfang.34.a" #purge plotters but allow others to remain
		add_prestige = -25
		add_estate_influence_modifier = { ## eunuch plotters assassins purged
			estate = estate_eunuchs
			desc = EST_BIANFANG_EUNUCH_ASSASSINATION_ATTEMPT_ROYAL_FAMILY
			influence = -20
			duration = 5475
		}
		add_estate_loyalty = { ## remaining eunuchs loyal
    		estate = estate_eunuchs
    		loyalty = 15
		}
		increase_tyrant_benevolent_1 = yes
	}
	option = {
		name = "bianfang.34.b" #purge all eunuchs
		if = {
			limit = {
				estate_influence = {
					estate = estate_eunuchs
					influence = 80
				}
			}
			spawn_rebels = {
				type = noble_rebels
				size = 3
			}
		}
		else_if = {
			limit = {
				estate_influence = {
					estate = estate_eunuchs
					influence = 60
				}
			}
			spawn_rebels = {
				type = noble_rebels
				size = 2
			}
		}
		else = {
			spawn_rebels = {
				type = noble_rebels
				size = 1
			}
		}
		set_country_flag = anti_eunuch_country
		add_ruler_modifier = { 
			name = eunuchs_purged
			duration = -1
		}
		increase_tyrant_ruthless_2 = yes
	}
}

country_event = {
	id = bianfang.35 ##eunuchs successfully assassinate consort
	title = bianfang.35.t
	desc = bianfang.35.d
	picture = ASSASSINATION_eventPicture

	is_triggered_only = yes

	option = {
		name = "bianfang.35.a"
		kill_consort = yes
		add_prestige = -40
		add_estate_influence_modifier = { ## eunuch plotters assassins purged
			estate = estate_eunuchs
			desc = EST_BIANFANG_EUNUCH_ASSASSINATION_ROYAL_FAMILY
			influence = -20
			duration = 5475
		}
		add_estate_loyalty = { ## remaining eunuchs loyal
    		estate = estate_eunuchs
    		loyalty = 15
		}
		increase_tyrant_benevolent_1 = yes
	}

	option = {
		name = "bianfang.35.b" #purge all eunuchs
		kill_consort = yes
		add_ruler_modifier = { 
			name = eunuchs_purged
			duration = -1
		}
		if = {
			limit = {
				estate_influence = {
					estate = estate_eunuchs
					influence = 80
				}
			}
			spawn_rebels = {
				type = noble_rebels
				size = 3
			}
		}
		else_if = {
			limit = {
				estate_influence = {
					estate = estate_eunuchs
					influence = 60
				}
			}
			spawn_rebels = {
				type = noble_rebels
				size = 2
			}
		}
		else = {
			spawn_rebels = {
				type = noble_rebels
				size = 1
			}
		}
		set_country_flag = anti_eunuch_country
		increase_tyrant_ruthless_2 = yes
	}
}

country_event = {
	id = bianfang.36 ##eunuchs fail to assassinate consort
	title = bianfang.36.t
	desc = bianfang.36.d
	picture = ACCUSATION_eventPicture

	is_triggered_only = yes

	option = {
		name = "bianfang.36.a"
		add_prestige = -25
		add_estate_influence_modifier = { ## eunuch plotters assassins purged
			estate = estate_eunuchs
			desc = EST_BIANFANG_EUNUCH_ASSASSINATION_ATTEMPT_ROYAL_FAMILY
			influence = -20
			duration = 5475
		}
		add_estate_loyalty = { ## remaining eunuchs loyal
    		estate = estate_eunuchs
    		loyalty = 15
		}
		increase_tyrant_benevolent_1 = yes
	}

	option = {
		name = "bianfang.36.b" #purge all eunuchs
		add_ruler_modifier = { 
			name = eunuchs_purged
			duration = -1
		}
		if = {
			limit = {
				estate_influence = {
					estate = estate_eunuchs
					influence = 80
				}
			}
			spawn_rebels = {
				type = noble_rebels
				size = 3
			}
		}
		else_if = {
			limit = {
				estate_influence = {
					estate = estate_eunuchs
					influence = 60
				}
			}
			spawn_rebels = {
				type = noble_rebels
				size = 2
			}
		}
		else = {
			spawn_rebels = {
				type = noble_rebels
				size = 1
			}
		}
		set_country_flag = anti_eunuch_country
		increase_tyrant_ruthless_2 = yes
	}
}

country_event = {
	id = bianfang.37 ##eunuchs successfully assassinate ADM advisor
	title = bianfang.37.t
	desc = bianfang.37.d
	picture = ASSASSINATION_eventPicture

	is_triggered_only = yes

	option = {
		name = "bianfang.37.a"
		kill_advisor_by_category_effect = { ADM = yes }
		add_prestige = -30
		add_estate_influence_modifier = { ## eunuch plotters assassins purged
			estate = estate_eunuchs
			desc = EST_BIANFANG_EUNUCH_ASSASSINATION_COURT
			influence = -15
			duration = 5475
		}
		add_estate_loyalty = { ## remaining eunuchs loyal
    		estate = estate_eunuchs
    		loyalty = 10
		}
		increase_tyrant_benevolent_1 = yes
	}

	option = {
		name = "bianfang.37.b" #purge all eunuchs
		kill_advisor_by_category_effect = { ADM = yes }
		add_ruler_modifier = { 
			name = eunuchs_purged
			duration = -1
		}
		if = {
			limit = {
				estate_influence = {
					estate = estate_eunuchs
					influence = 80
				}
			}
			spawn_rebels = {
				type = noble_rebels
				size = 3
			}
		}
		else_if = {
			limit = {
				estate_influence = {
					estate = estate_eunuchs
					influence = 60
				}
			}
			spawn_rebels = {
				type = noble_rebels
				size = 2
			}
		}
		else = {
			spawn_rebels = {
				type = noble_rebels
				size = 1
			}
		}
		set_country_flag = anti_eunuch_country
		increase_tyrant_ruthless_2 = yes
	}

}

country_event = {
	id = bianfang.38 ##eunuchs fail to assassinate ADM advisor
	title = bianfang.38.t
	desc = bianfang.38.d
	picture = ACCUSATION_eventPicture

	is_triggered_only = yes

	option = {
		name = "bianfang.38.a"
		add_prestige = -20
		add_estate_influence_modifier = { ## eunuch plotters assassins purged
			estate = estate_eunuchs
			desc = EST_BIANFANG_EUNUCH_ASSASSINATION_ATTEMPT_COURT
			influence = -15
			duration = 5475
		}
		add_estate_loyalty = { ## remaining eunuchs loyal
    		estate = estate_eunuchs
    		loyalty = 10
		}
		increase_tyrant_benevolent_1 = yes
	}

	option = {
		name = "bianfang.38.b" #purge all eunuchs
		add_ruler_modifier = { 
			name = eunuchs_purged
			duration = -1
		}
		if = {
			limit = {
				estate_influence = {
					estate = estate_eunuchs
					influence = 80
				}
			}
			spawn_rebels = {
				type = noble_rebels
				size = 3
			}
		}
		else_if = {
			limit = {
				estate_influence = {
					estate = estate_eunuchs
					influence = 60
				}
			}
			spawn_rebels = {
				type = noble_rebels
				size = 2
			}
		}
		else = {
			spawn_rebels = {
				type = noble_rebels
				size = 1
			}
		}
		set_country_flag = anti_eunuch_country
		increase_tyrant_ruthless_2 = yes
	}
}

country_event = {
	id = bianfang.39 ##eunuchs successfully assassinate DIP advisor
	title = bianfang.39.t
	desc = bianfang.39.d
	picture = ASSASSINATION_eventPicture

	is_triggered_only = yes

	option = {
		name = "bianfang.39.a"
		kill_advisor_by_category_effect = { DIP = yes }
		add_prestige = -30
		add_estate_influence_modifier = { ## eunuch plotters assassins purged
			estate = estate_eunuchs
			desc = EST_BIANFANG_EUNUCH_ASSASSINATION_COURT
			influence = -15
			duration = 5475
		}
		add_estate_loyalty = { ## remaining eunuchs loyal
    		estate = estate_eunuchs
    		loyalty = 10
		}
	}

	option = {
		name = "bianfang.39.b" #purge all eunuchs
		kill_advisor_by_category_effect = { DIP = yes }
		add_ruler_modifier = { 
			name = eunuchs_purged
			duration = -1
		}
		if = {
			limit = {
				estate_influence = {
					estate = estate_eunuchs
					influence = 80
				}
			}
			spawn_rebels = {
				type = noble_rebels
				size = 3
			}
		}
		else_if = {
			limit = {
				estate_influence = {
					estate = estate_eunuchs
					influence = 60
				}
			}
			spawn_rebels = {
				type = noble_rebels
				size = 2
			}
		}
		else = {
			spawn_rebels = {
				type = noble_rebels
				size = 1
			}
		}
		set_country_flag = anti_eunuch_country
		increase_tyrant_ruthless_2 = yes
	}

}

country_event = {
	id = bianfang.40 ##eunuchs fail to assassinate DIP advisor
	title = bianfang.40.t
	desc = bianfang.40.d
	picture = ACCUSATION_eventPicture

	is_triggered_only = yes

	option = {
		name = "bianfang.40.a"
		add_prestige = -20
		add_estate_influence_modifier = { ## eunuch plotters assassins purged
			estate = estate_eunuchs
			desc = EST_BIANFANG_EUNUCH_ASSASSINATION_ATTEMPT_COURT
			influence = -15
			duration = 5475
		}
		add_estate_loyalty = { ## remaining eunuchs loyal
    		estate = estate_eunuchs
    		loyalty = 10
		}
		increase_tyrant_benevolent_1 = yes
	}

	option = {
		name = "bianfang.40.b" #purge all eunuchs
		add_ruler_modifier = { 
			name = eunuchs_purged
			duration = -1
		}
		if = {
			limit = {
				estate_influence = {
					estate = estate_eunuchs
					influence = 80
				}
			}
			spawn_rebels = {
				type = noble_rebels
				size = 3
			}
		}
		else_if = {
			limit = {
				estate_influence = {
					estate = estate_eunuchs
					influence = 60
				}
			}
			spawn_rebels = {
				type = noble_rebels
				size = 2
			}
		}
		else = {
			spawn_rebels = {
				type = noble_rebels
				size = 1
			}
		}
		set_country_flag = anti_eunuch_country
		increase_tyrant_ruthless_2 = yes
	}
}

country_event = {
	id = bianfang.41 ##eunuchs successfully assassinate MIL advisor
	title = bianfang.41.t
	desc = bianfang.41.d
	picture = ASSASSINATION_eventPicture

	is_triggered_only = yes

	option = {
		name = "bianfang.41.a"
		kill_advisor_by_category_effect = { MIL = yes }
		add_prestige = -30
		add_estate_influence_modifier = { ## eunuch plotters assassins purged
			estate = estate_eunuchs
			desc = EST_BIANFANG_EUNUCH_ASSASSINATION_COURT
			influence = -15
			duration = 5475
		}
		add_estate_loyalty = { ## remaining eunuchs loyal
    		estate = estate_eunuchs
    		loyalty = 10
		}
		increase_tyrant_benevolent_1 = yes
	}

	option = {
		name = "bianfang.41.b" #purge all eunuchs
		kill_advisor_by_category_effect = { MIL = yes }
		add_ruler_modifier = { 
			name = eunuchs_purged
			duration = -1
		}
		if = {
			limit = {
				estate_influence = {
					estate = estate_eunuchs
					influence = 80
				}
			}
			spawn_rebels = {
				type = noble_rebels
				size = 3
			}
		}
		else_if = {
			limit = {
				estate_influence = {
					estate = estate_eunuchs
					influence = 60
				}
			}
			spawn_rebels = {
				type = noble_rebels
				size = 2
			}
		}
		else = {
			spawn_rebels = {
				type = noble_rebels
				size = 1
			}
		}
		set_country_flag = anti_eunuch_country
		increase_tyrant_ruthless_2 = yes
	}

}

country_event = {
	id = bianfang.42 ##eunuchs fail to assassinate MIL advisor
	title = bianfang.42.t
	desc = bianfang.42.d
	picture = ACCUSATION_eventPicture

	is_triggered_only = yes

	option = {
		name = "bianfang.42.a"
		add_prestige = -20
		add_estate_influence_modifier = { ## eunuch plotters assassins purged
			estate = estate_eunuchs
			desc = EST_BIANFANG_EUNUCH_ASSASSINATION_ATTEMPT_COURT
			influence = -15
			duration = 5475
		}
		add_estate_loyalty = { ## remaining eunuchs loyal
    		estate = estate_eunuchs
    		loyalty = 10
		}
		increase_tyrant_benevolent_1 = yes
	}

	option = {
		name = "bianfang.42.b" #purge all eunuchs
		add_ruler_modifier = { 
			name = eunuchs_purged
			duration = -1
		}
		if = {
			limit = {
				estate_influence = {
					estate = estate_eunuchs
					influence = 80
				}
			}
			spawn_rebels = {
				type = noble_rebels
				size = 3
			}
		}
		else_if = {
			limit = {
				estate_influence = {
					estate = estate_eunuchs
					influence = 60
				}
			}
			spawn_rebels = {
				type = noble_rebels
				size = 2
			}
		}
		else = {
			spawn_rebels = {
				type = noble_rebels
				size = 1
			}
		}
		set_country_flag = anti_eunuch_country
		increase_tyrant_ruthless_2 = yes
	}
}
## new monarch event
country_event = { 
	id = bianfang.1000
	title = bianfang.1000.t
	desc = {
        trigger = {
            has_country_modifier = bianfang_tyrant_modifier_benevolent
            bianfang_ruler_benevolent_personality = yes
        }
	    desc = "bianfang.1000.da" #benevolent ruler, benevolent legacy
    }
	desc = {
        trigger = {
                has_country_modifier = bianfang_tyrant_modifier_pragmatic
                bianfang_ruler_benevolent_personality = yes
            }
    	desc = "bianfang.1000.db" #benevolet ruler, pragmatic legacy
    } 
    desc = {
        trigger = {
            has_country_modifier = bianfang_tyrant_modifier_ruthless
            bianfang_ruler_benevolent_personality = yes
        }
        desc = "bianfang.1000.dc" #benevolent ruler, ruthless legacy
    }
    desc = {
        trigger = {
            has_country_modifier = bianfang_tyrant_modifier_benevolent
            bianfang_ruler_pragmatic_personality = yes
        }
        desc = "bianfang.1000.dd" #pragmatic ruler, benevolent legacy
    }
    desc = {
        trigger = {
            has_country_modifier = bianfang_tyrant_modifier_pragmatic
            bianfang_ruler_pragmatic_personality = yes
        }
        desc = "bianfang.1000.de" #pragmatic ruler, pragmatic legacy
    } 
    desc = {
        trigger = {
            has_country_modifier = bianfang_tyrant_modifier_ruthless
            bianfang_ruler_pragmatic_personality = yes
        }
        desc = "bianfang.1000.df" #pragmatic ruler, ruthless legacy
    }
    desc = {
        trigger = {
            has_country_modifier = bianfang_tyrant_modifier_benevolent
            bianfang_ruler_ruthless_personality = yes
        }
        desc = "bianfang.1000.dg" #ruthless ruler, benevolent legacy
    }
    desc = {
        trigger = {
            has_country_modifier = bianfang_tyrant_modifier_pragmatic
            bianfang_ruler_ruthless_personality = yes
        }
        desc = "bianfang.1000.dh" #ruthless ruler, pragmatic legacy
    } 
    desc = {
        trigger = {
            has_country_modifier = bianfang_tyrant_modifier_ruthless
            bianfang_ruler_ruthless_personality = yes
        }
        desc = "bianfang.1000.di" #ruthless ruler, ruthless legacy
    }
    desc = {
        trigger = {
		    ruler_has_personality = fertile_personality
        }
        desc = "bianfang.1000.dj" #fertile
    } 
    desc = {
        trigger = {
            OR = {
                ruler_has_personality = tactical_genius_personality
                ruler_has_personality = bold_fighter_personality
                ruler_has_personality = martial_educator_personality
            }
        }
        desc = "bianfang.1000.dk" #martial
    } 
    desc = {
        trigger = {
            ruler_has_personality = navigator_personality
        }
        desc = "bianfang.1000.dl" #navigator
    } 
    desc = {
        trigger = {
            OR = {
                ruler_has_personality = babbling_buffoon_personality
                ruler_has_personality = infertile_personality
                ruler_has_personality = drunkard_personality
                ruler_has_personality = sinner_personality
                ruler_has_personality = naive_personality
                ruler_has_personality = craven_personality
                ruler_has_personality = loose_lips_personality
                ruler_has_personality = obsessive_perfectionist_personality
            }        
        }
        desc = "bianfang.1000.dm" #laughingstock
    } 
    desc = {
        trigger = {
            OR = {
                ruler_has_personality = mage_personality
                ruler_has_personality = scholar_personality
            }
        }
        desc = "bianfang.1000.dn" #bookish
    } 
    desc = {
        trigger = {
            ruler_has_personality = immortal_personality
        }
        desc = "bianfang.1000.do" #immortal
    } 	
    picture = NUSANTARA_THRONE_eventPicture
	
	is_triggered_only = yes
    	
	option = {
	    name = bianfang.1000.a #benevolent ruler, benevolent legacy
        trigger = {
            has_country_modifier = bianfang_tyrant_modifier_benevolent
            bianfang_ruler_benevolent_personality = yes
        }
		increase_tyrant_benevolent_1 = yes
    }
	option = {
	    name = bianfang.1000.b #benevolet ruler, pragmatic legacy
        trigger = {
                has_country_modifier = bianfang_tyrant_modifier_pragmatic
                bianfang_ruler_benevolent_personality = yes
            }
		increase_tyrant_benevolent_2 = yes
    } 
    option = {
        name = bianfang.1000.c #benevolent ruler, ruthless legacy
        trigger = {
            has_country_modifier = bianfang_tyrant_modifier_ruthless
            bianfang_ruler_benevolent_personality = yes
        }
		increase_tyrant_benevolent_3 = yes
    }
    option = {
        name = bianfang.1000.d #pragmatic ruler, benevolent legacy
        trigger = {
            has_country_modifier = bianfang_tyrant_modifier_benevolent
            bianfang_ruler_pragmatic_personality = yes
        }
        increase_tyrant_ruthless_1 = yes
    }
    option = {
        name = bianfang.1000.e #pragmatic ruler, pragmatic legacy
        trigger = {
            has_country_modifier = bianfang_tyrant_modifier_pragmatic
            bianfang_ruler_pragmatic_personality = yes
        }
    } 
    option = {
        name = bianfang.1000.f #pragmatic ruler, ruthless legacy
        trigger = {
            has_country_modifier = bianfang_tyrant_modifier_ruthless
            bianfang_ruler_pragmatic_personality = yes
        }
		increase_tyrant_benevolent_1 = yes
    }
    option = {
        name = bianfang.1000.g #ruthless ruler, benevolent legacy
        trigger = {
            has_country_modifier = bianfang_tyrant_modifier_benevolent
            bianfang_ruler_ruthless_personality = yes
        }
        increase_tyrant_ruthless_3 = yes
    }
    option = {
        name = bianfang.1000.h #ruthless ruler, pragmatic legacy
        trigger = {
            has_country_modifier = bianfang_tyrant_modifier_pragmatic
            bianfang_ruler_ruthless_personality = yes
        }
        increase_tyrant_ruthless_2 = yes
    } 
    option = {
        name = bianfang.1000.i #ruthless ruler, ruthless legacy
        trigger = {
            has_country_modifier = bianfang_tyrant_modifier_ruthless
            bianfang_ruler_ruthless_personality = yes
        }
        increase_tyrant_ruthless_1 = yes
    }
    option = {
        name = bianfang.1000.j #none of the above
        trigger = {
			OR = {
            	bianfang_ruler_irrelevant_personality = yes
				NOT = {
					bianfang_ruler_ruthless_personality = yes
					bianfang_ruler_pragmatic_personality = yes
					bianfang_ruler_benevolent_personality = yes
				}
				NOT = {
					has_country_modifier = bianfang_tyrant_modifier_ruthless
					has_country_modifier = bianfang_tyrant_modifier_pragmatic
					has_country_modifier = bianfang_tyrant_modifier_benevolent
				}
			}
        }
    } 
}